<svg width="113" height="108" viewBox="0 0 113 108" fill="none" xmlns="http://www.w3.org/2000/svg">
<path d="M101.7 22.7368H79.1V11.3684C79.1 5.05895 74.0715 0 67.8 0H45.2C38.9285 0 33.9 5.05895 33.9 11.3684V22.7368H11.3C5.0285 22.7368 0.0564999 27.7958 0.0564999 34.1053L0 96.6316C0 102.941 5.0285 108 11.3 108H101.7C107.971 108 113 102.941 113 96.6316V34.1053C113 27.7958 107.971 22.7368 101.7 22.7368ZM67.8 22.7368H45.2V11.3684H67.8V22.7368Z" fill="#5B8C85"/>
</svg>
